{
  "prepare_queue": {
    "installed": [],
    "uninstalled": []
  },
  "config_munge": {
    "files": {}
  },
  "installed_plugins": {
    "cordova-plugin-device": {
      "PACKAGE_NAME": "com.danamon.dmoney"
    },
    "cordova-plugin-geolocation": {
      "PACKAGE_NAME": "com.danamon.dmoney"
    },
    "cordova-plugin-qrscanner": {
      "PACKAGE_NAME": "com.danamon.dmoney"
    },
    "cordova-plugin-whitelist": {
      "PACKAGE_NAME": "com.danamon.dmoney"
    },
    "cordova-plugin-dialogs": {
      "PACKAGE_NAME": "com.danamon.dmoney"
    },
    "cordova-plugin-camera": {
      "PACKAGE_NAME": "com.danamon.dmoney"
    },
    "cordova-plugin-spinner": {
      "PACKAGE_NAME": "com.danamon.dmoney"
    },
    "cordova-plugin-screen-orientation": {
      "PACKAGE_NAME": "com.danamon.dmoney"
    }
  },
  "dependent_plugins": {
    "cordova-plugin-compat": {
      "PACKAGE_NAME": "com.danamon.dmoney"
    }
  }
}